5.000000000000000000e-01,0.000000000000000000e+00
7.500000000000000000e-01,0.000000000000000000e+00
1.000000000000000000e+00,0.000000000000000000e+00
1.250000000000000000e+00,0.000000000000000000e+00
1.500000000000000000e+00,0.000000000000000000e+00
1.750000000000000000e+00,0.000000000000000000e+00
1.750000000000000000e+00,1.000000000000000000e+00
2.000000000000000000e+00,0.000000000000000000e+00
2.250000000000000000e+00,1.000000000000000000e+00
2.500000000000000000e+00,0.000000000000000000e+00
2.750000000000000000e+00,1.000000000000000000e+00
3.000000000000000000e+00,0.000000000000000000e+00
3.250000000000000000e+00,1.000000000000000000e+00
3.500000000000000000e+00,0.000000000000000000e+00
4.000000000000000000e+00,1.000000000000000000e+00
4.250000000000000000e+00,1.000000000000000000e+00
4.500000000000000000e+00,1.000000000000000000e+00
4.750000000000000000e+00,1.000000000000000000e+00
5.000000000000000000e+00,1.000000000000000000e+00
5.500000000000000000e+00,1.000000000000000000e+00
